{
    "page":1,
    "per_page":10,
    "total":13,
    "total_pages":2,
    "data":[
        {
            "name":"terry",
            "age":36,
            "role":"father"
        },
        {
            "name":"beautifulSiver",
            "age":36,
            "role":"mother"
        },
        {
            "name":"westLake",
            "age":5,
            "role":"son"
        }
    ]
}